…
```r
# only keep one record for per country & year & sport combination & Medal
winter_new <- select(winter,c('Country','Year','Sport','Medal'))
winter_new <- winter_new %>% distinct(Country, Year, Sport, Medal)

# Calculate how many medals of each type the country won by year and sports
medal_count <- winter_new %>%
  group_by(Country, Medal) %>%
  summarize(n = n())
Medal_count_new <- medal_count %>% drop_na(Medal)
Medal_count_new
```

```
## # A tibble: 104 × 3
## # Groups:   Country [41]
##    Country   Medal      n
##    <chr>     <chr>  <int>
##  1 Australia Bronze     4
##  2 Australia Gold       6
##  3 Australia Silver     3
##  4 Austria   Bronze    50
##  5 Austria   Gold      38
##  6 Austria   Silver    49
##  7 Belarus   Bronze     5
##  8 Belarus   Gold       3
##  9 Belarus   Silver     4
## 10 Belgium   Bronze     3
## # … with 94 more rows
```
…
b) Chose of of the athlete specific dimensions (e.g. gender, height, weight) and visualize an interesting pattern in the data.

I chose age as the athlete specific dimension:


```r
winter_sub <- select(winter,c('Year','Name','Age', 'Medal')) %>% filter(Name %in% top_10_athletes$Name) %>% drop_na(Medal) %>% group_by(Year, Name, Age, Medal) %>%
  summarize(Count = n()) %>%
  arrange(desc(Name))

winter_sub
```

```
## # A tibble: 73 × 5
## # Groups:   Year, Name, Age [42]
##     Year Name                      Age Medal  Count
##    <dbl> <chr>                   <dbl> <chr>  <int>
##  1  1998 "Yang Yang"                20 Silver     3
##  2  1998 "Yang Yang"                21 Silver     1
##  3  2002 "Yang Yang"                24 Bronze     1
##  4  2002 "Yang Yang"                24 Silver     1
##  5  2002 "Yang Yang"                25 Gold       2
##  6  2002 "Yang Yang"                25 Silver     1
##  7  2006 "Yang Yang"                29 Bronze     1
##  8  1992 "Ursula \"Uschi\" Disl"    21 Silver     1
##  9  1994 "Ursula \"Uschi\" Disl"    23 Bronze     1
## 10  1994 "Ursula \"Uschi\" Disl"    23 Silver     1
## # … with 63 more rows
```
…
3) Showing the medal count could represent the ability of the athletes.


```r
astable <- select(winter,c('Year','Name','Sex', 'Medal','Sport')) %>% 
  filter(Sport == 'Freestyle Skiing') %>% 
  drop_na(Medal) %>% 
  group_by(Year, Name, Sex, Medal) %>%
  summarize(Count = n()) %>%
  arrange(Year)
astable
```

```
## # A tibble: 102 × 5
## # Groups:   Year, Name, Sex [102]
##     Year Name                                    Sex   Medal  Count
##    <dbl> <chr>                                   <chr> <chr>  <int>
##  1  1992 "Donna L. Weinbrecht"                   F     Gold       1
##  2  1992 "Edgar Alain Grospiron"                 M     Gold       1
##  3  1992 "Nelson Graham Carmichael"              M     Bronze     1
##  4  1992 "Olivier Allamand"                      M     Silver     1
##  5  1992 "Stine Lise Hattestad (-Bratsberg)"     F     Bronze     1
##  6  1992 "Yelizaveta Aleksandrovna Kozhevnikova" F     Silver     1
##  7  1994 "Andreas \"Sonny\" Schnbchler"          M     Gold       1
##  8  1994 "Edgar Alain Grospiron"                 M     Bronze     1
##  9  1994 "Elizabeth Geary \"Liz\" McIntyre"      F     Silver     1
## 10  1994 "Hilde Synnve Lid"                      F     Bronze     1
## # … with 92 more rows
```
…
